{
  "companys": [
    {
      "rsaPub":
        "-----BEGIN PUBLIC KEY-----\nMIIBIjANBgkqhkiG9w0BAQEFAAOCAQ8AMIIBCgKCAQEAvFAgKFE4RfTzcO0vCY4j\n2bicozYUYauhaAPkoWxGpCZROGKQxMaPBKrJ2/vE7ZzOvqLRIsJoYNLqt+yZvqs4\nobJ0zPqjfV49Yw/egacTD096VL3Y0+lOMPdEPaicS94g+wUT9gl+tqyyauZwSfq+\npaYkQSNygfqbvb7SBickEJTsRq47aLL5QvrcP4FmYdkOzx5ahFiB0c4weWucOrba\n9/zBH4Dlm3r65WpnFip47shAkDVUAVXnZom/cLR7js9uYxLcDIkeIa5q18Zz6BaD\ncerJTw4FMemjUuwHvfotf86j3ahYqi7UaP92tTkIXMPby+XydCdp+/HdEE2Oreha\nPwIDAQAB\n-----END PUBLIC KEY-----",
      "rsaPk":
        "-----BEGIN RSA PRIVATE KEY-----\nMIIEogIBAAKCAQEAvFAgKFE4RfTzcO0vCY4j2bicozYUYauhaAPkoWxGpCZROGKQ\nxMaPBKrJ2/vE7ZzOvqLRIsJoYNLqt+yZvqs4obJ0zPqjfV49Yw/egacTD096VL3Y\n0+lOMPdEPaicS94g+wUT9gl+tqyyauZwSfq+paYkQSNygfqbvb7SBickEJTsRq47\naLL5QvrcP4FmYdkOzx5ahFiB0c4weWucOrba9/zBH4Dlm3r65WpnFip47shAkDVU\nAVXnZom/cLR7js9uYxLcDIkeIa5q18Zz6BaDcerJTw4FMemjUuwHvfotf86j3ahY\nqi7UaP92tTkIXMPby+XydCdp+/HdEE2OrehaPwIDAQABAoIBAEvn/F5kBsvkJfDi\nGnC+k+LiEHmVhfesyB32W8VZsMvgCiMxT+uRofqeoUmEHegtqgSb+rMJLCvDOQu0\nWnDJ8cTz+zLY4OfbAeGZdvZKE1u7jLL1553b0EHame5EteO7AQ5OCLLHNwWJbU27\n341iflClPL3o/PI5w2djsKL8SgRIYX11bWhbaSGJoVuiHE274hRvXTlvswJsKwii\nbPmIVoDvqFOB9e1t254PKrrsJ463+Iv/It21RcWDRDurB7BkqoGDjJd+kQe4pVRH\nf2L0gebBvGHFGgo6EgyEN+TwwpvGfrEwBqACZQxtAzK08X88UiO6KzMx8Rc5V46Z\nw74JgIkCgYEA8UeZc7E9J4zynvQ8ydQg5ZbEfas5mEHtNm20YgtkUwob838S8/bw\nLybyOD1dFHXKEEannrExkhJvZCFd/SmErEHdXmb6vf114+gjzLeDQN4JM/EubmcN\ndmKtuina/xk5vwyGZLHQXch+qymNSwAp39/4tQUjSYOGgfqVKyNT5eUCgYEAx81F\niRZpaQrAOAx8p1TI1y9dCOxqbYn0wEf/T4srB/1S11hJ9UDsbfU73rQktgL72b/Z\n8lFVIZUFUhDKldBmdJUv43d+nQQPd4xEr3Ed1EZ0rX3gj1jFINkyO+4kcCCzZUy4\nos9bjjw+Ap7n1HZyzQIgDJa/KjLCGYIbo1FkfVMCgYBBUY7bYSobIO811Qz33rOh\nM/Wxx77p1z8usvhYapkYWe5DNy2cWkefnD2KuCIQveqcCWSrc3DmCJObWeUl+i1u\nrM4PFnXfJVTbBCdc7nlcAEAhjbNyM/fTCtfZRCeDVALsE6n2bKTqHrMcBz23Bi5P\n60RbTS7GYhLx8TKc4Q1/eQKBgEfmdr9+cTB7zfBdjf4pZJ0LTk+HxETnAEyxnA7j\n5fhaERWtj+/SDUMEnSbnbM6TBE6325Z37krHdcKyiDShaj1J8pHIzqdybp52u8Dm\n0/Uv5Y0JX2Y2a7oGby1h5Xr0SZqKoWb1d90XkLkgtgyfE3Dy8tWU6fYljfPf/lIn\nWCJBAoGAfxJtSdWxAjQ6cO0sv2oe/R5yMBUxXnlHwMsy2VQN/XrbRxhGX+/pEtU5\nz+TMcA7skJdqXJDEjS/0Hdayey1CqmqPAaN1jzubMDltI0A6C7Fmyg0ej99/nzCh\n1xz5+cAVJRhGYHHVxJUJSDROtRo88xwWdk8wLYWfQeDsV6IR5lE=\n-----END RSA PRIVATE KEY-----"
    },
    {
      "rsaPub":
        "-----BEGIN PUBLIC KEY-----\nMIIBIjANBgkqhkiG9w0BAQEFAAOCAQ8AMIIBCgKCAQEAhnonOZ63fcwMONwont5V\nXexUBr7xaKva8KXb1bA6kMWFqCTpty1uD6sbulem4LcBYRyCD4GyGxRysw9z7ULv\nKOJ9N49CaluSxK5GjUJUR24tlFtJ2638y859O80p+1pjBOejqZzejqSarXtMfq5D\nXKPPhnuAtWNommMWSzu2NNz9bqYXdeEFxb3+OcjF6hwPDq00ODaZpEDJUlCwj7u1\nMyQIMx0Oj0SFMPC2nNoS8PxFasZunNjra1ssT8QssfNCLdI5Jl6CvoVFyf2vSqKw\n4+m+hTqJVJVEhRB2HQ5VXCJpbKcbQ4E3waPyquZomcJkVjeRsxyrLXGw2FQNKfJn\nfwIDAQAB\n-----END PUBLIC KEY-----",
      "rsaPk":
        "-----BEGIN RSA PRIVATE KEY-----\nMIIEogIBAAKCAQEAhnonOZ63fcwMONwont5VXexUBr7xaKva8KXb1bA6kMWFqCTp\nty1uD6sbulem4LcBYRyCD4GyGxRysw9z7ULvKOJ9N49CaluSxK5GjUJUR24tlFtJ\n2638y859O80p+1pjBOejqZzejqSarXtMfq5DXKPPhnuAtWNommMWSzu2NNz9bqYX\ndeEFxb3+OcjF6hwPDq00ODaZpEDJUlCwj7u1MyQIMx0Oj0SFMPC2nNoS8PxFasZu\nnNjra1ssT8QssfNCLdI5Jl6CvoVFyf2vSqKw4+m+hTqJVJVEhRB2HQ5VXCJpbKcb\nQ4E3waPyquZomcJkVjeRsxyrLXGw2FQNKfJnfwIDAQABAoIBAFBoJaAMSMbNBNnS\nue8UHZMFRdCqxwnBCC4v3dxNfRcnI53ARIakgVSZCQFIe52NjyOTuiivceFDPrnW\nGYjaJsoZcqmP3TRfAMjdM44vBNmZBWPZmbXiuG7cToE9UUbbaq16G5/FDkXYIixs\ntvZgGCMCR4mvuuu6PsdhS+k8ENxWEA+N2ziOAqRLv6+/9cHCExagpg5Vy9bMdQBt\njU1ssdFfurGNytXRv7s1bqsj94lrv7jaC2jWPG7IP+0WvQjz87nrgT4702GjTU2N\nX2teBs2pSFvxtM1lbwMN4ZxZ08agNaWlpYAkS8Qpinch7vhtdpLQRntSm1v43kwe\nPIYarIECgYEAySPCNYQ7BDUzUt98mKkaa4z0PYLl4ccYkQpKJiCdJocyjBFssX96\njcawDueV8ZUcKkP1rTsyzXzoCgMrsLBYWMie6Vw9VItnKB5G0/h3Wl3GiDScd58k\nXj47/Cy4cbhagwAv//gFqfMLJXdCk/LGTCaGrNWk+x2EDHcNW2enk18CgYEAqyfL\ntKRNrEFizjCN6hwzbWIa0qB9PuIHXEWoMZe6aYZeZtbAu4fVoyJAfG4a6oMkoRK1\nZMpwjTGkpiocRCN3KLNM38BSve2QPYUS86vEBl3k3+pMTEakBhAT/Dr4tyxv5kfp\nWObjwUicVpx9uthENi8Lk22TwwsNoCqULxkKv+ECgYBRsX5dshkuOlVgIXk/n98l\nM5i3qwSnUO//aMh49+IcFelHzoPxC6/BCaPUSecyubc4y2VrOJIHt+Weu27xUo5v\ncPxqF5apUf1R5AosacxAHbpW89dhFnf09x3x7E/1kETi1B6qvhe+0QID845M/Nvh\nbfxhElzxySkqzufT6iO7zQKBgB/WfEczFRvI4fdXAt8ctdhQGos5vXKYGyRn9Lyc\n69k7XI4mvp1jzDLXaUV8OdeL46Fu2H1SRxOMu4MJbE6khkL074TjwsB/04gOHBNl\nzUYd6zhX3i+GKHbUQNN3qNJyGrKsh9S4xn8q4aIe5CiAmFe38qBPDuCGSteTdBM6\nxkwhAoGAP7rS5aMFBk219Q6sVFpXaDVpB3fZyAHrqzxLmPBAT+Vuq3XzUavl+/vc\n1RHFhgHnE/f0/XY0NkWS6r8za18wlax6SC5PY4ocdUQG9KCzV3JnqdsLVjdQvCcS\nF5BzTrNB3yoZoSl+V/TIg8QQSdzgmBh8vkWisDIcP5bbXrVO1D0=\n-----END RSA PRIVATE KEY-----"
    },
    {
      "rsaPub":
        "-----BEGIN PUBLIC KEY-----\nMIIBIjANBgkqhkiG9w0BAQEFAAOCAQ8AMIIBCgKCAQEAktQz0iWpP+Fo2i4jS94y\nn0BjOvAuYv1BuHPWfPpcPsw+RIJSlCIXmE3L85OYXyihDXpRdm5IpQXe9qLa3SYG\nUla2cBULQRBbjaatCnZ7VHg3Hh6BNyKySp6ZY28dEhKcSLw7fVOQiv6bcEPB+hqF\nXLgIHxmXoaf+fjlSw6qurLQfMu/HzskvxpcNgOlFTXePueXOyqNmpdfiuapnNVCE\nNv5/pscmupLGlmdgl5FYd4XKr/Dat0sxTDC/EyuPZ/PlzvX/ZFBuHrLoJLFYdG0N\npqHrKZBz4PFHQKYGW1ofUkvG1xcsU+WdXD1U9CRXqxc4ED5d8tjzOWtnNRUbLc+T\nsQIDAQAB\n-----END PUBLIC KEY-----",
      "rsaPk":
        "-----BEGIN RSA PRIVATE KEY-----\nMIIEowIBAAKCAQEAktQz0iWpP+Fo2i4jS94yn0BjOvAuYv1BuHPWfPpcPsw+RIJS\nlCIXmE3L85OYXyihDXpRdm5IpQXe9qLa3SYGUla2cBULQRBbjaatCnZ7VHg3Hh6B\nNyKySp6ZY28dEhKcSLw7fVOQiv6bcEPB+hqFXLgIHxmXoaf+fjlSw6qurLQfMu/H\nzskvxpcNgOlFTXePueXOyqNmpdfiuapnNVCENv5/pscmupLGlmdgl5FYd4XKr/Da\nt0sxTDC/EyuPZ/PlzvX/ZFBuHrLoJLFYdG0NpqHrKZBz4PFHQKYGW1ofUkvG1xcs\nU+WdXD1U9CRXqxc4ED5d8tjzOWtnNRUbLc+TsQIDAQABAoIBAAGpkWShtIbaoHtH\n5nJnc59F9Vmnen74axQRi64ij4TOfy37Y7/1mtrIlrSNST5akWg7qEx09zGXHW0h\nbuTuF0g7Xxlpw5TbAI5cAr2Jld/g9I7MvZ3IMMiTfx0XFvcrasWQDARhO9O3Cj99\nJOcWAciI9N6VRZg49LKtJ3i7p/qgkwa53iQpcrZUO+1jE8XcGF+mNIfdA5kC9pp5\ncseoyj93gaPB/PyjODBybu5p93CpriQLY9O7grNf9NcRWBxeK1qPndalWIaObiW6\nHJ1bgkjnnfjCGrf6i7qReQje6bd+Jb6JLozpVe5u2CSg58itVpYpBnxeDQHuz00Q\n5jhYRzkCgYEA2S6ZJPIOq5SBW8K6I1kR8CK+JU+FJUszmtnVx5nph6OS9MTMStoe\nAEIcllutwAQHeXJadr3FJMvqlowjlhEh0yxADVs0+YeDVq5z0rEPkLmi/LnQoGpL\nqRbVqkjv+PJJBbZ7/ftJWLHcmk5coBo9FHOR1BlRnOORdqvHOGeSBwsCgYEArRKF\nQj+LSwATiSl7U1A3T6KviQapIvvqGzdyNPXxtstlo/pCXWLM0BrOHA4JmOyNOH6c\npSPYAzmqI1gLtSA2OQZuC3nc8uY1iSCWawkD6G1f7DypPFGjpg8tpnnvz/tQTPeT\nN0jHcvonQhMh9+HjXQ6pjjMMCb99DN7MaDXaVbMCgYAUM5FrLljO/PFLZ8GIqDBS\n9ehZ8BuibGxQaxLHjjl6tGxm+CdIjyFbRMsD8WMoCTfoxApGIUDFO3KGrmJhAxby\nXZtXorQ6wbAlz/RWFMIt5BaVC3OseDaxc75MKJypu1+veFnwNf+MkH7Em6Vh/w7P\naDCYWgKNZV2SfEf7pyaeIQKBgBWFKQa8ygAwaT1z5/7LCaWgT/1U07Ei69Aoi83k\nCwM0tVW3Z4sfHuJ9gsVgRXc7aq/spmOuWkzEXdB5QTNrZvKeRw6sP3oAgAWmBK4Y\nd+DtwLCqNkzmxdd/Kaj6noQY9rorSqXkKdC1JC6GHIIrF09Z5GFnHYcUxWLVTUtj\n7tsbAoGBAK6uq4T76Y8OQdi/y/6HxzMI26zrV8Ys8pwKhsovOa9/aDDH9o6v4CoM\njSqIl552fWAh7c/tzNgQssDsbNpLBsBSmCQ45tEavwQkbTh3pz73AdykPgNtxJgB\n4GVj4vZqmdAFJMU0CqvQZvqQhKGGp8EkgF4NRD/OYXtkCFPQOyLb\n-----END RSA PRIVATE KEY-----"
    },
    {
      "rsaPub":
        "-----BEGIN PUBLIC KEY-----\nMIIBIjANBgkqhkiG9w0BAQEFAAOCAQ8AMIIBCgKCAQEAnXY46doxNlcJepYq8J6/\ngEPpl+0aXdeUOPKjlpcdZ04cVCmwOlQXtWO+7bpAy5zd039TGTMHx93Y9PQ5y8z4\n8AmTaPt6gtlBpEu23BwQF97h3Bwyb49hiDkdMrmW1OHERs1JbA43At2yHDwkh/5b\nYJziGHM48G4GFMMNGsgmihzfmOgOkcZ6opWjRfkHKj8HaAP0JmrIHAYpKHxnAr/9\n4HHKWJCZLgO2ZcE6rDjZKNmkg0oXvTxG9g5NiUIVvzOsZrGhIBlomlEOVeluoemq\nhndL+gPXYYhI7bjZYkdHaGuO5fIm/GOpdknsMfrgeqCZHsKVntAqkX3GBe+nrdnr\nNwIDAQAB\n-----END PUBLIC KEY-----",
      "rsaPk":
        "-----BEGIN RSA PRIVATE KEY-----\nMIIEowIBAAKCAQEAnXY46doxNlcJepYq8J6/gEPpl+0aXdeUOPKjlpcdZ04cVCmw\nOlQXtWO+7bpAy5zd039TGTMHx93Y9PQ5y8z48AmTaPt6gtlBpEu23BwQF97h3Bwy\nb49hiDkdMrmW1OHERs1JbA43At2yHDwkh/5bYJziGHM48G4GFMMNGsgmihzfmOgO\nkcZ6opWjRfkHKj8HaAP0JmrIHAYpKHxnAr/94HHKWJCZLgO2ZcE6rDjZKNmkg0oX\nvTxG9g5NiUIVvzOsZrGhIBlomlEOVeluoemqhndL+gPXYYhI7bjZYkdHaGuO5fIm\n/GOpdknsMfrgeqCZHsKVntAqkX3GBe+nrdnrNwIDAQABAoIBAC2tNLdJjwsHVn2U\nACLKuhx4FtP2eLaOKbYXVLMDZQkplHgpm7Bf4nzA0Yreg5tNBuAqSC3AKtqklSIB\nkp52+CORc4x5nsFESpFhUUsqbNSv1+7k0xCflBhTERA82+8nCqvLMyhAO17+doNQ\nQvycIV+2QrP7AKJmGCd/qVaChwN7BVDmNOb5wiQtCi20fTNMcDb9/g4UGxP9ywUM\n8UbqPqPwMjlzb2s6I6LD5OrtznTAL0T1IoRb9chR8xGk/UXUStX6ksttu2yjDOLX\nlH/+RQYz75XiivyZN5aP3xR1sCVfh4e9R4B/wFrtdukvkE/1XMz8est4wHjqu8aH\nm8OAEnECgYEA43/RGb4H4LWAVVKcgSTQey5Qs41qgsAEOU9m/iVp5MZ1inqDOlIC\n7Jy9sqY5CEmF72NZ55KYPTaWa3eSYHeSg25woZr7j2s9FPoUJvxPUSzKJhligegL\nbcg+s/ZPID22NEXRSMmuPQMcLH/U7ebclA1G+v3yQQ50S2lHvGHz1g8CgYEAsTA3\nj1iCYVfkZ7NqmL3dkSzPgM1TzDgOLWAv+TGjo//q5znoWsUypAqnIffFAVQfGJT2\n/tkLZnvVLtf1EnBzU6BDJGqfQe4ZRcdyO9DtAJ4AuFks1CjkQhGz+Tjld7gM/cZL\nFIyk2V3IqZ3V1REAui4G2CC0YlUPzHDK2H8jgFkCgYBU/PP9vOsufD+0IEeNS1aD\nHhtR6Huo2tj5G/uq6Ak2SRmyIPCTQf4LrMaFTemyed0KQEBe7XnoLFNnVGUfmqvm\nY8S56q8dtf88rewHYGy1M5lVQFh3lVtnqM4b5uFKdyNxRb/YhFeOPXIyAZNnSL6Q\npKEmtOXifebeITeGXcV86wKBgAH5QYUtPTaMXhTxoKxW4RLu5tjOcLKDpVTID4C9\nFs+K2Dj/IiFwtOGy5K2yLtWW9Em3zxCDpmbb1kIRUb+E1SQHUvgi3+dCGbH3SMR1\nzU4GdIeZJrCuS+yYeeK6yYON30csYEW4U1XAf62z/l/DMrjgLl9V7exyehyS3Q+Q\nSvrxAoGBAJEdKwaFeSmf06JP0ymcmH/ZqDnDUgExSJKEB1zVe6fywPlKbTLKhmYS\nq/m5gdMg9zX/q4nB/1cW8VG5xP6M6CDho7yWk78bV5Ds4Eiw7Z6Vkfhu3emTO1tT\nXrIspoYRreP59/URqfhCabCd77H3jSaY7QzAmMehu7junlgaMrna\n-----END RSA PRIVATE KEY-----"
    },
    {
      "rsaPub":
        "-----BEGIN PUBLIC KEY-----\nMIIBIjANBgkqhkiG9w0BAQEFAAOCAQ8AMIIBCgKCAQEAw44lN2kTole7LJoH35Bg\nYtQpJA4xBM2XTWRwBuXhPoCTpXmre5d4+oRCfSqRH2PetqJvR3lrG3HjOhEL8841\n+/j6fDAVajeyXDWeyQB4Gu1J8bIBErnSv+9nhQWm6cb2rSPEtfoMKZYhDx/Y+UeF\njlLcveJBRiayijFPYsK/JrvD8F7d23MKAPi746cKbyeiEvKYbZAQRl71Q6kDFICu\nHatcSA1DHn1Yb4wv4OVn6uZpav38dDjx7rafq7TSNdwzJu4aSFDCI6wDjsFNc7yq\niwSBYJgqX8ApY4eBidxtzi71Rik1EzwIrsOOssQ61//1sRldzKDgCQxWLPMcSr1n\nNwIDAQAB\n-----END PUBLIC KEY-----",
      "rsaPk":
        "-----BEGIN RSA PRIVATE KEY-----\nMIIEowIBAAKCAQEAw44lN2kTole7LJoH35BgYtQpJA4xBM2XTWRwBuXhPoCTpXmr\ne5d4+oRCfSqRH2PetqJvR3lrG3HjOhEL8841+/j6fDAVajeyXDWeyQB4Gu1J8bIB\nErnSv+9nhQWm6cb2rSPEtfoMKZYhDx/Y+UeFjlLcveJBRiayijFPYsK/JrvD8F7d\n23MKAPi746cKbyeiEvKYbZAQRl71Q6kDFICuHatcSA1DHn1Yb4wv4OVn6uZpav38\ndDjx7rafq7TSNdwzJu4aSFDCI6wDjsFNc7yqiwSBYJgqX8ApY4eBidxtzi71Rik1\nEzwIrsOOssQ61//1sRldzKDgCQxWLPMcSr1nNwIDAQABAoIBAAk5JBI394AZqS9S\nWHq34YPnw8T6kl9Knw88ZHg+0V/USqJsWaUroL4YDNbAcjXLzQ5KHPt/A4k41uG/\nOhQWrr8ioBXJYskutU/aC5IpXoDOnkUzAw/yCbmZvgUtHhE6nBnQbQ+0KmyvswF2\nnBItyGPNDrI6AKAhZRxVdQwQaVmXPlzJF+dUx+zlPtBFj9Ka2b2ZOjJ2o7BQ2Ycb\nB1xWOxhLQFMl4Y5YIUC43MbwUXZF1Q8mNcepR6j5PUEM6E+FQPGcwXb+EiHhnHjN\nZoz1HNncToWrS7cwh+L1KfMpA6iKhs8ojcfsa9GsVh4X5L5uNhGAvhKC79s5eDoF\nhvpggwECgYEA8XK5wJgFLJEEAUveo6MHvVlfEbwqIl+uZuI3/0ZdKzXsAFCTuZKZ\nROyvIo8rMup0lTFVZsmcBMokGOnxKmg1vd7Egmsyxj2j1ggzeTle4k/Mr+HpS3bc\njY+HOf1Y5TStWEamV2Q13SJw4yejuXPG9fJrIDkcrguZ0fh2OONzoYECgYEAz1dY\nCJsUetL+8KHbHH43jTqIB+ti72VHTbN4mIWJ16usbL8OeWCvL9knTRujJksf+WnW\njmOMK3x0MeyRxGyJg96XKL0ak/ZJPvdzIaLU5Q4meh7fyUDTHvnt0WtONjq+X/wr\nFKMp+Ftc39nOXELEQ0SJAZe9T7WdTC1it4Qm9LcCgYEAmg5xpwlYg88jlxApxo9H\naPGVT2OYHsaeKNc+k4r595A4PRsspsN7OBcsyAhBsAMYz/jiXOtWuVehIKRkVIKZ\nh8ST7gMoKoU5/F7PORH6ELyKBc9HY/c7Ure5uK6GAflSgXjSugAevjIzhTzNoo7U\n7Cj5YV4Php2wT+EQzcuTBAECgYBpXwA0T2vXB8fcTsVl85cTxP1A2RVMiHH2QRE2\nohbtbieQlIAsm0As1vUsMLF3UpKLVIhfkKO5reP3QzzJUEeKpuK3J3OMYovS3jq6\ni2AakFhpk6szQiiJA4ci+J+k27HIYgUa1dkMiJHoiW5gYOYRMZFXJ+Bj0+5+ukoC\n7bxGfQKBgCP029yCCAtVkMGhSuNZYSW/hnw1T1oHIzt5tXCagytipXNcoz2V515Q\nWKXfDcn/SjT1KYXiive68PsiXO/vlYL27l7g1C4MGZsvdfd2KmDAl/pYRBc95bXf\nzQZC6alJJ1fYwSETnSPnDzcEzmOareCOzlt8SnQVXWAQ5jAaPWpM\n-----END RSA PRIVATE KEY-----"
    },
    {
      "rsaPub":
        "-----BEGIN PUBLIC KEY-----\nMIIBIjANBgkqhkiG9w0BAQEFAAOCAQ8AMIIBCgKCAQEAoegYf70HpI0ac3ddxChh\nKGFLHvUIF6yCBA0CVH9um+A9kRy2FVaC47Hs8Mh+FtpYUBZj7JSlb4paP41zEuJt\nGr178aJof6srFMZNoJz4fN1G7WAUffJQEfLWXduXtnr0FZBQM8wtixHpwaEjNOKl\nSHEj0F1S8F94G7TefbJ9vMosCXTqH6b1M4W6PnD0rlc0xx1QGAUBM7D4OV0ZWZ+5\nrvRtMAsOtdc2F/kVyGLUiZ5Y9qanhMgdM2T/ypsGN8oIgcH1QkSu7o55olgwwVlj\nPzexxMr1Lhn4vJGJAf3wVVeiuHkW24OmzVs8arurT9/u9hl9nCGn9xpaSfP5l8lv\nmQIDAQAB\n-----END PUBLIC KEY-----",
      "rsaPk":
        "-----BEGIN RSA PRIVATE KEY-----\nMIIEpQIBAAKCAQEAoegYf70HpI0ac3ddxChhKGFLHvUIF6yCBA0CVH9um+A9kRy2\nFVaC47Hs8Mh+FtpYUBZj7JSlb4paP41zEuJtGr178aJof6srFMZNoJz4fN1G7WAU\nffJQEfLWXduXtnr0FZBQM8wtixHpwaEjNOKlSHEj0F1S8F94G7TefbJ9vMosCXTq\nH6b1M4W6PnD0rlc0xx1QGAUBM7D4OV0ZWZ+5rvRtMAsOtdc2F/kVyGLUiZ5Y9qan\nhMgdM2T/ypsGN8oIgcH1QkSu7o55olgwwVljPzexxMr1Lhn4vJGJAf3wVVeiuHkW\n24OmzVs8arurT9/u9hl9nCGn9xpaSfP5l8lvmQIDAQABAoIBAHD9MFu056iGcHc0\nTlOeem9btrkb91HOKc355i5h4CcYDt8+UjQB88ZDXT+MK7J3HjqF5aYs9mco/mJr\nrGr5aXrH0b+Hv7WZFq+g1HvKD//TzLPL4YEjoY1lEwTdQrsugzipRc9gJkhvb9qZ\nQaCeqworKvs2pbLqbT+osby229jrgcYGCweu/wXrV/T4mhxMQRFdyhhR/9nQQFgB\npq/Wog/EN7bedYiF6zKc0iWtWc7l2n12mLEW91leQ7ls0eTzglhXwE3YH+HmBorH\nlUVp423Zycat7dawmJaaW7c029UEQU6PiFOOp526VTX2U7IiKesHmwL+ZGCfCTkJ\n8o0/CaECgYEA10bkHIF5EJ2QAgivae+rq3uoRNi7GA8xCVopO0D3rsEuJORaKAwP\nVVoM2kYq/9N7pmYFZpPE3AhvMS88UVsoxPc0Xh/IrnoY4p8GryZX3gO1NCqmia5Y\nGPaQ7bT6DnDsaNeLc/o1COPPZWWIvu2fCkDJUFeZaSe/9cBDSnmBSKMCgYEAwIiq\n8rUYOizZ1ZVEE72D1RLdADKMc3FW51j9VZo3XmfC7Um7IXafx7UlY2R84fEzWPG0\nQAwyAEgUaD6V2vVoODxEpGcVP1AcV+pMLWS9I3thON048rR4fF6Akj8s4fioiZ0g\n6gQmkSA1zbRl9juIKJBRQzHaA8wQrTabnjJJ/pMCgYEAyVsac/s6NKtbjjt3bzvo\ns03HVxXs8ZUMBbZaSHz87mzsbz9TgI+/K9M9oE/vWjgCOOLF/GsMv833yuZmoaYF\nXS3nwn4yI9g6PIYIJ31SxGttaqzV9oOnDTpa1qvnE+jVhz7Mxh7qyjTiwPGWVRdH\nIbz1T3uQF4ZBi2hYyGkb3scCgYEAgjwwPornP3rVQxd7/EpmobvnyFlpDjHtkgJt\nIvl1WKOhhHcqYOFoBWPwTYJMw10v2Ytt3SEitXQMcdNb9Mep3thNqlOcWL5s3b88\nFjydgCHWSuvBuNMA6UfXepXHW3ejMasa95ElMWfzXRkZG217lczBW02eZpEj+rcE\nnwbvbIcCgYEAiB2sD6HvGOedO670hRQ6ZA1zzUIeLCPfi3iaXjrfMxgnoVhqY+OL\n4rCqqNxtbtKCJVMPCqjXL2N2+FbVdsRKNQNLZ8utuBS+xNWI+sWhx5TcbBYYmWuD\nKF2Z+lkCL4/3qMa+JaK72fgpGCSqfi45W2pn9peYbvJ/eZMDMVrBytE=\n-----END RSA PRIVATE KEY-----"
    },
    {
      "rsaPub":
        "-----BEGIN PUBLIC KEY-----\nMIIBIjANBgkqhkiG9w0BAQEFAAOCAQ8AMIIBCgKCAQEAoo0ALj8lDrGqe99YwevK\nExaFGPK75cuU57VJKIqlgC74IhagGIMMmbhYULgFP+KVSDNmru4vHjGqI5qTBu0U\nmhn2o6aEv3n9kIXCLBjcjJahi/fmdhkwLP0BUnv/NJr35lLpLTCIOJ+FbAnUAlPM\nLKqbFNNjzdOR9cJCK0Qo7lMqRLuKI3Eu43wsUt182zl9dOXQL2g5l8P1tWWTRVw/\nVAfmlmVghSDdDXcjHUWC6hWOQ2Sh/S8sHkc4+OKy4wHNhdS9nnRlatl3Prq+23yl\nuG6EOB+64M/XktcxGrBl3csm2O1/IwfOxoWDsPbU6Il/Wlc12bbgcA0KwMPR4gJu\nKQIDAQAB\n-----END PUBLIC KEY-----",
      "rsaPk":
        "-----BEGIN RSA PRIVATE KEY-----\nMIIEpAIBAAKCAQEAoo0ALj8lDrGqe99YwevKExaFGPK75cuU57VJKIqlgC74Ihag\nGIMMmbhYULgFP+KVSDNmru4vHjGqI5qTBu0Umhn2o6aEv3n9kIXCLBjcjJahi/fm\ndhkwLP0BUnv/NJr35lLpLTCIOJ+FbAnUAlPMLKqbFNNjzdOR9cJCK0Qo7lMqRLuK\nI3Eu43wsUt182zl9dOXQL2g5l8P1tWWTRVw/VAfmlmVghSDdDXcjHUWC6hWOQ2Sh\n/S8sHkc4+OKy4wHNhdS9nnRlatl3Prq+23yluG6EOB+64M/XktcxGrBl3csm2O1/\nIwfOxoWDsPbU6Il/Wlc12bbgcA0KwMPR4gJuKQIDAQABAoIBAQCES9P4z8W+VtVV\naisX8WsO7AY5jt1korO3ffFkAKvATvn+7IEyUf6AYevnDk6fdy9eiw8okoxgu7Uo\nsxa0zWI2Jal5+f4SxRudc2/cagOenL4wZ/v25Hs0MlrQIkFMNFBM8e/7qoND6nkx\nvDIEDuWe+N+tLHsPOwGRjqBCDIBvrou7VWg4W9fKOHcEpAwAN0oLTYEJD8/S/1Fc\nrkdpn61dhf90L2cYwAHDRVJUav6aMWMTJ2fLpaWU4OSJ+burTOWr89bbwXKTkxof\nIV8BK1xNdH+E3rKfSzBmbix7bVaVzi3ozictT+9izv0prWfOBcQ7SS6bDrr5WAmc\noDbCVvCtAoGBAOZAxH9zh/z2ltg99pe1YswV8rXjlREgWuKfS3aFaa5z4yb+mg3o\nfH1i6L727SGKohtJ9gzX6hupZlhYC6vEPkGHtrppv+fn0DSclhls9Co7yPieddK2\nfLRabVg+6Vd3hWkoaBL1vQdx2kmBQ1+FRT7CGnBulr+UzxdfxVcLGQ1zAoGBALS6\nL8OmqXiyxw6R88xAaEAjc9e1zF4KDaqikgW2dCW8Tw5Xk+bRxGN9dvAiCd2LW1SU\n1RSsLmtQLKjOWO/z7276/r/iqAKQLvsersjUiPIWhilczhykm2jmtEXxd6Jcvx8X\nKHEvc4rKjB38cwci+YXmKPCwg9GCyY74afyP8C7zAoGAHJk2zs2+ukC2g61Oj5FL\n8CVZvBXEUhg+sZ8vdE0lzzE9qX4+DDQwIjLCzdVFpsDdWZ5aHUZEIaNsvtRQvsjl\nIqaEn6q610cHqUE5s3bA7O34DElCQSXBX3VL14YY3XBO9by7EH/NNruBbVfM0nRv\nIVhiiEx0FN+ayUBv9lu+hNkCgYA53Q7j7p1+FodjI9nSAKEgP/mcDAoF5eQgSPLF\nv3gKiPMq3WFuWqUtUYNeORe9hhvUxd4/Qy2NkFrsJT0WfpyfhN9Bopk2UOGp51YA\n2QOLtyh3X85iH1XezVbUug4avuU2WBzLuGye+GDKTQSrOUh41YswHOPnlZ9hFioh\nAhjdfwKBgQC9rJjZOPO5/qGHdSg34C6HNVm29PpggdWMoqfnb40zwE98mpnDB5hA\n9ZofJyXrqyaSuNh76SZYjQwF5fJ3WCSbJfi/h2NStOpknXwfJ7CIK3UVazfCP/3a\nSSQW9d9/ExWTBDNjvo4SA9aHswl6gi0FR8E86ruqZqz51FjWbg3A+A==\n-----END RSA PRIVATE KEY-----"
    },
    {
      "rsaPub":
        "-----BEGIN PUBLIC KEY-----\nMIIBIjANBgkqhkiG9w0BAQEFAAOCAQ8AMIIBCgKCAQEA25ukpVN1bUPVObnhCn8S\nxiPC3jlYVvDGE/r4fRWx+gjx39YHad7+7PgRXnnF/4/AwQQN9J1Xr7r0ZagzLayD\nxeHd5ZDX57MRGT3pNnwTSDlGPqMEv3QftFLs8+reFiU1MMSyUXF4Z8oGDE2q8g6t\nteIsdWsW75LSS4UeMCZFu/FFIaWJz1sOxh3OISUGZ+jP/RUlKqBUj5ZyTy0EHL02\nyhCTA0uQJC821tf068uNtf5gTnhMmEK3angqTHi9BndocpgwmUEYefHWFY4kvOtZ\ns7KEqFg9r0oB572ar1+2IujtQOZGME5uASE4b5XHkhKWYXpnAyvsg2MBFvQMUvBM\ncQIDAQAB\n-----END PUBLIC KEY-----",
      "rsaPk":
        "-----BEGIN RSA PRIVATE KEY-----\nMIIEogIBAAKCAQEA25ukpVN1bUPVObnhCn8SxiPC3jlYVvDGE/r4fRWx+gjx39YH\nad7+7PgRXnnF/4/AwQQN9J1Xr7r0ZagzLayDxeHd5ZDX57MRGT3pNnwTSDlGPqME\nv3QftFLs8+reFiU1MMSyUXF4Z8oGDE2q8g6tteIsdWsW75LSS4UeMCZFu/FFIaWJ\nz1sOxh3OISUGZ+jP/RUlKqBUj5ZyTy0EHL02yhCTA0uQJC821tf068uNtf5gTnhM\nmEK3angqTHi9BndocpgwmUEYefHWFY4kvOtZs7KEqFg9r0oB572ar1+2IujtQOZG\nME5uASE4b5XHkhKWYXpnAyvsg2MBFvQMUvBMcQIDAQABAoIBAG79EI9FyNk6KS+N\nlADcDD77n+b0EIOQGGvMsX12U4bMsoGwB/sn6qsVDKI05S6uFnr2c58nTkPQNuiR\nw5vXzplZ9+2n8JZ3V7LsKUuSFaSw3aGWfjXMmKFoL71u/GMw1tsY7g5fTL0Xy0q4\njibb6Es+Tb3iK6tVBteIJaOsFB5Rd9o6b73tFp8CI60ylqva6/yC5rxJrhMeVWQD\nKfSGa/WWqN3slGXOc5m4NLTu4NJmPAiVkEDZWGiIEeKiL9lzTwYowXQK9XItj0Pq\nK+nD+PUc4BCnR9u66sEgbGUBjGoPS82OKn+2Nom+iCud+y9kN5SenA13IX9Qow6s\nBJuRL2kCgYEA+myR05NudBaRqRs2oqpjhFzm3gelFaRCQZNzgKFFqkzAbicexhV4\n/+b9gSmdFv4kGFxN2HzSchd5/ztvPU7jNxPOtcWmVoanLBejCmF/v2+V32RUzTbZ\ndBb5Mmn8b5kDjaNRT5yWmwU1mSa9JgxLeIHR2SYHkNCCzi4mbTgD1KMCgYEA4H9r\nh2yoKtyd+lVSS7Me3zUofKiU7SvRBnfr7CKoaGUd0x0WX2jjH+sryfWBWfjMjQ1n\n7G3ZKLpTbm1WFu4bE2LG4saGHBPC2rQ/9/6Ul3Wz1MmHfjxZMXQeSKnxSu6HoyEp\nILN2mts74X1y2Wh5Wvz3Hzr2hI0ArFpRh7xiV9sCgYB2IS7tElgBNQBDOE4ej6fg\nMX7Kb+rE+bYzft32aJ0XR5timtueb1Sjyo/9FOdAiGP4hdpG7CLNpRtsddn0nrj6\nK0LQZksf9+b2GrRTWkjLwlR9i7OhFmWfqJKm4G4vKowNjWP23RQCToPJGggR4azc\nTMjz2UeqXWHG5uhDjy/nZwKBgGQbba+t3C+AwVFnypLHBPUzlyI/aml4KHVh9GoP\n6lji/jGtvtQ8yUrqa1RbjZq5Pz2GxNjBAx0OOTX8u27uLlSur1FghVzv0uwDhKLp\newkvC0nPtAOulXdf+EEexuJLC2DK4LQcUr8rE8CxWA1qcPMJ6oiammLxHWO9wq1s\na84RAoGAWlvUYSFHbdATAE0cwprNBTfX+pfNYKVG2uu1AyWqjTo4aPhS8bswdHTk\niyAik/BbhLtj4yw1FlA1iyoArShn7xNL+39dynIgcobIRGcyTcHYydCAnbBGMBlb\nfr3fcnuPegci2UAW0rM4YL3dEJV9tf0fyTbntfoU0DRJXnLrC+s=\n-----END RSA PRIVATE KEY-----"
    },
    {
      "rsaPub":
        "-----BEGIN PUBLIC KEY-----\nMIIBIjANBgkqhkiG9w0BAQEFAAOCAQ8AMIIBCgKCAQEAkAgkh6FXms4OooszGQEQ\nPaQ2NCTi/Vus0XDICMPV4DT9Gg1lE4LQYmqTnqMTVCpGvQEDXygwWXVCbd3qELnD\nFDp9OZkhdHQIAZu4A2f9kbOTsjx354iVyylsjb0Mcv/hhpOEesPAmhZPW6xEObO+\n267rgO1B/WeTz6oUjkeVRKeWJcTh/ePrVsDk6brkG1/NSQsay0ZPHyhXjf0VE/Zk\n+vFXrYwne62zILb7GpUK4a36nve0m8rkT/zcWmcW5DlTsL24aLIsmo+yAlzHYHQS\nNd98eTEdeCCQARKmWMvd/csISXdaRcrsVVRjwmAI4FjSqS2jXEFekALIfIPBwu0V\nnQIDAQAB\n-----END PUBLIC KEY-----",
      "rsaPk":
        "-----BEGIN RSA PRIVATE KEY-----\nMIIEpAIBAAKCAQEAkAgkh6FXms4OooszGQEQPaQ2NCTi/Vus0XDICMPV4DT9Gg1l\nE4LQYmqTnqMTVCpGvQEDXygwWXVCbd3qELnDFDp9OZkhdHQIAZu4A2f9kbOTsjx3\n54iVyylsjb0Mcv/hhpOEesPAmhZPW6xEObO+267rgO1B/WeTz6oUjkeVRKeWJcTh\n/ePrVsDk6brkG1/NSQsay0ZPHyhXjf0VE/Zk+vFXrYwne62zILb7GpUK4a36nve0\nm8rkT/zcWmcW5DlTsL24aLIsmo+yAlzHYHQSNd98eTEdeCCQARKmWMvd/csISXda\nRcrsVVRjwmAI4FjSqS2jXEFekALIfIPBwu0VnQIDAQABAoIBABZHzC7W/JBL8+Od\nGOhzS6ndby0dz6dVuSQlCCyi7sDiMY0IKWydPdMbnX5ax7CrYYn3UCg2NVSBWSdZ\nvs2bjtvgOGLil1RGZr6o8gxE1+rkFqLpy7qbXGCzJcG/Tt+zSZXh2AqNoYu0i84o\nld0/OvUM2A13pk+m6CylqMxhsmuOLVKpFuZW057Oysb6Yzi6Wbg7+HkXU6y00Iuq\n+xM42ZlvqTflORbe1vcNccAqNrs5ysLS7NlPGgFX6g7xXGe4gmqTZdC7Gt+d/dap\nSL0KeYdmEgSXKl2RyMaS+aT0y9fIYASaQNfYvrI6QJ3rut4FYtHWjF75aldmjR4L\nvCAJ6pkCgYEA16dfxFpvkAgMBaAIJUeIb9AX86+JScwxyxhGaqvnlqkEuM5g1qrQ\nB9bmQMDq63xekngHfOUY5nQQhgYCViyb+GPbleqRT5neHx0tKDzTH2x9FvOyvels\nxkjt0HEZien2we8lfwI3wephBnyfdzZtaT1aYUWWymkiCqG3CKiYke8CgYEAqvp4\neDR0qSRS9Q99QfSt1x6bkAbiuiy4TBtTNNSKUNAMko9p6iQL1UJUnyOToEsv17+R\nBxLDe6ak/dOgHECBX95jKQEcLS7uvyuCKKaaXlyCh/+UhRz3M2nE+am33RPfy2dX\nupYBmigPhhMWwgBf2cJ0NMSNwj2U7GdHFnAvLTMCgYEAg622oz2ZW3geZxzlfGXm\nYGfPCEQJ717YlKt468+VtH/12yZhKRLZvb+xjp59k1a4pHTYFaIKB0WdhUiMCrRo\ndE39GdhF7DYG1DbLiQNC4rAq3WXmoWGzwotrcthsgLK0soxk992R0D1eC0jzUiaQ\nvi7xTe3g+i0h1R4TlhzkNE8CgYEAlZSRBmCl2z/7D4fghm5AE94kLGnJuyTai0Kw\nlZyH8VFCXon3GC825vijvaHLSkXc8jwW7gA9YxUUbTfScEUCqlONntboxqKzni27\nLkMq8/is/bvcPGRt493ZxK31PAViGbosZwFLH4mCo0JZ+5mGQaU8MtnuRwvHGNb1\nuyykKT8CgYB+WH2zjiPnF95X43iQoH/+BM4rcQPy2aboR2FsKn11LxWAqr1IL6pa\nqg2rluWG7xr3as07xqq6anRIpw23zOjKc44IhFm7cBcZCg0dRJJqhs6XlNuustud\nr/19FgQRRPPNRlk57Ji/B6CZsRmFHEFdKHU6odX89uTbkVKyiCQRMg==\n-----END RSA PRIVATE KEY-----"
    },
    {
      "rsaPub":
        "-----BEGIN PUBLIC KEY-----\nMIIBIjANBgkqhkiG9w0BAQEFAAOCAQ8AMIIBCgKCAQEAg49vWnXKI91VYGjQgfAh\nu5sK60ZnBmYmH7R5fqGqcSnQnYMOJEkS1akbx4cLS1QpcXSsUiHl5LEfgzzhldoA\nwa1gcaLzVhTfb++xiGg4PEs6LJCOQ647G0LD25IgQ4JKTmkKceaUT13+xTzpAha6\nB8m6jAwPrtq9dBvKPHawubkAJprSdqgLx6V93/y+ZVi7Nus8TozlyMXVxudl84yo\nzE1hypDPX6AeWXdUIh4hfc87gAR10iR+a1MGXw6RzWT16hvHfU3kRuMHUgGc5dwc\nWL4IK6Yzh8MKO2EN6rwLEt4ZdBR4aJlc22zWeGwJ1ybVJClsDE2SIBkt3dVaLPIE\nYQIDAQAB\n-----END PUBLIC KEY-----",
      "rsaPk":
        "-----BEGIN RSA PRIVATE KEY-----\nMIIEpAIBAAKCAQEAg49vWnXKI91VYGjQgfAhu5sK60ZnBmYmH7R5fqGqcSnQnYMO\nJEkS1akbx4cLS1QpcXSsUiHl5LEfgzzhldoAwa1gcaLzVhTfb++xiGg4PEs6LJCO\nQ647G0LD25IgQ4JKTmkKceaUT13+xTzpAha6B8m6jAwPrtq9dBvKPHawubkAJprS\ndqgLx6V93/y+ZVi7Nus8TozlyMXVxudl84yozE1hypDPX6AeWXdUIh4hfc87gAR1\n0iR+a1MGXw6RzWT16hvHfU3kRuMHUgGc5dwcWL4IK6Yzh8MKO2EN6rwLEt4ZdBR4\naJlc22zWeGwJ1ybVJClsDE2SIBkt3dVaLPIEYQIDAQABAoIBACDnU9tVEGxt4/eL\n33JQI6+vNEjpv8Sq8agGVEimmGFbKvDqITRUDmDfvbHmhZ2efAsDOkIEdmH/JrmF\nFYqMDppiCXgCYEfMSqHNWiKapk32JqOUt/AXeHL1/NRCtM0NnhYEUXdxSvCauqiL\n9l7uXjKqcnyqW5XI4Y9Tj/4VVVftoF3iYu7Od4hOO1nIAqZLfzAyTu5jnH2KxVSy\nB79ZrIYmfBYWVWj/0bp/sluu/Ss9kAsQWdsqiMDWA+BmeZo0O3Tt8DaszgcfYttB\nOTP2RjbxxPRr0FhNiUyJ3jrPbtIjj3oWuO0zZyziRdQDEyzIqlQXGCuy+maQU9ZP\nIdpRtV0CgYEAuNalKl+QCD4KVkW24fsOUtMycoKuZxWQL9aZLFZ6RRmkNf1PaiKN\nmI2Tc+TG0LDpZ4b+4NBHl2/zhfc28o/PYlP8tgRe7CWCRMJjaLxSZW/eMyp55FpG\ngFZecHxLyFLFBQII2edzNsXImSVhXoSim603Nr4DHnluQ/o5sboUwF8CgYEAtjXJ\ngaaGuhKNHoM28FLkYZ2wdjI5IUTQrX2dUzDAjSbUbh+2smtMjInhZRVKTtAyinKO\ntlQmV0WcTueYPil8b7FmgRZFr9WTZRtGm+ly0LUtjOhL9Kbru1NN4iA2KpR0VAB/\nPcwIo86+M6L2UMz7d/kWSFEJjlmUbr6H1fgUcz8CgYEAopPJetfLLDTFitSO432b\nP6ab/LSNCgahaDJtT95QdW70TLidnVD/EmuUgp97cBvrcDABB2SrU7wYioDDR97O\nHkKZSM/XXgYv6qLAJWNfZfFbk82MoRn2YPOW5YGudmi2+oyrlF5LrKWSp4GFf0lS\nbXOR2QiQXcGZBxmUnYp6rikCgYEAhQWNf+Z38z354m2+3QJXEuDRY+jUhnI7uny7\nL3GnESVo7qCee3EUKIG8mFRLtHAQhbyObZPPjeUW8Q/ouHEHFG+5usHszCqq+aRJ\nDygGF1I91+H7GbgG3vI5KL2Fbd6FcpIOUqozIIudlgsBsgmECJlDaDYpONAzKgpV\nFqOPIncCgYAxe/dFvj+3sE4IXus5IFrJKsKV/6vFDeUdrnXTyTh9Y7/Qp0NzInL4\nKu1iYHFU2D61G2eXhpAPwavaQQF3/c23FS4zFnFddPXcqGiQARD9FV+m6JuNe1w0\nO+c2qi3VOMqS0LrATpTCWr57QbVe+AC+gFJSCWhQSXkUZNxhP83SjA==\n-----END RSA PRIVATE KEY-----"
    }
  ]
}
